ISSS608 - Take-home Exercise 3: Be Weatherwise or Otherwise
…
jun_rainfall_detailed <- jun_rainfall %>%
  select(Year, Month, Day,`Daily Rainfall Total (mm)`)

dec_rainfall_detailed <- dec_rainfall %>%
  select(Year, Month, Day,`Daily Rainfall Total (mm)`)

combined_detailed <- bind_rows(jun_rainfall_detailed,dec_rainfall_detailed) %>% 
  mutate(Month=recode(Month,
                      "6"="Jun",
                      "12"="Dec"))

combined_detailed

# A tibble: 305 × 4
# Groups:   Year [5]
   Year  Month   Day `Daily Rainfall Total (mm)`
   <fct> <fct> <dbl>                       <dbl>
 1 1983  Jun       1                         0  
 2 1983  Jun       2                        15.7
 3 1983  Jun       3                         0  
 4 1983  Jun       4                         0  
 5 1983  Jun       5                         0  
 6 1983  Jun       6                        14  
 7 1983  Jun       7                         0  
 8 1983  Jun       8                         0  
 9 1983  Jun       9                         0.4
10 1983  Jun      10                        27.7
# ℹ 295 more rows
…
