ISSS608 - Take-home Exercise 4: Prototyping Modules for Visual Analytics Shiny Application
…
4.1 Installing and loading the required libraries

The following code chunk is used to install the necessary R packages:

pacman::p_load(tidyverse,ggridges,ggrepel,ggthemes,ggstatsplot,hrbrthemes,patchwork,dplyr, gifski, gapminder,plotly,gganimate,ggiraph,magick)

4.2 Importing the Dataset

I will import the daily_historical.csv datafile using the following code chunk:

daily_historical <- read_csv("data/daily_historical.csv",locale=locale(encoding="latin1"))

daily_historical

# A tibble: 329,156 × 13
   station          year month   day daily_rainfall_total highest_30_min_rainf…¹
   <chr>           <dbl> <dbl> <dbl>                <dbl>                  <dbl>
 1 Macritchie Res…  1980     1     1                  0                       NA
 2 Macritchie Res…  1980     1     2                  0                       NA
 3 Macritchie Res…  1980     1     3                  0                       NA
 4 Macritchie Res…  1980     1     4                  0                       NA
 5 Macritchie Res…  1980     1     5                 22.6                     NA
 6 Macritchie Res…  1980     1     6                 49.6                     NA
 7 Macritchie Res…  1980     1     7                  2.4                     NA
 8 Macritchie Res…  1980     1     8                  0                       NA
 9 Macritchie Res…  1980     1     9                  0                       NA
10 Macritchie Res…  1980     1    10                  0                       NA
# ℹ 329,146 more rows
# ℹ abbreviated name: ¹​highest_30_min_rainfall
# ℹ 7 more variables: highest_60_min_rainfall <dbl>,
#   highest_120_min_rainfall <dbl>, mean_temperature <dbl>,
#   maximum_temperature <dbl>, minimum_temperature <dbl>,
#   mean_wind_speed <dbl>, max_wind_speed <dbl>

As can be seen, there are a total of 329,156 records across 13 variables.

4.3 Data Cleaning

4.3.1 Remove missing values

Before proceeding with analysis, we first remove any missing values in the data using the following code chunk:

daily_historical <- drop_na(daily_historical)

daily_historical

# A tibble: 44,856 × 13
   station    year month   day daily_rainfall_total highest_30_min_rainfall
   <chr>     <dbl> <dbl> <dbl>                <dbl>                   <dbl>
 1 Admiralty  2014     1     1                  0                       0  
 2 Admiralty  2014     1     2                  0                       0  
 3 Admiralty  2014     1     3                  4.6                     4.4
 4 Admiralty  2014     1     4                  3.8                     3.8
 5 Admiralty  2014     1     5                  3.6                     1.2
 6 Admiralty  2014     1     6                 80                      21.8
 7 Admiralty  2014     1     7                  2                       2  
 8 Admiralty  2014     1     8                  0                       0  
 9 Admiralty  2014     1     9                  2.6                     1.4
10 Admiralty  2014     1    10                  0                       0  
# ℹ 44,846 more rows
# ℹ 7 more variables: highest_60_min_rainfall <dbl>,
#   highest_120_min_rainfall <dbl>, mean_temperature <dbl>,
#   maximum_temperature <dbl>, minimum_temperature <dbl>,
#   mean_wind_speed <dbl>, max_wind_speed <dbl>
…
4.4 Data Wrangling

We will analyse weather and rainfall data separately and hence we will create two dataframes historical_temp and historical_rainfall from the dataset daily_historical:

historical_temp
historical_rainfall

historical_temp <- daily_historical %>% select(1:4,9:11)
historical_temp

# A tibble: 44,856 × 7
   station   year  month day   mean_temperature maximum_temperature
   <chr>     <fct> <fct> <fct>            <dbl>               <dbl>
 1 Admiralty 2014  1     1                 26.3                28.8
 2 Admiralty 2014  1     2                 26.9                30.7
 3 Admiralty 2014  1     3                 26.5                29.5
 4 Admiralty 2014  1     4                 26.4                31.2
 5 Admiralty 2014  1     5                 24.6                25.3
 6 Admiralty 2014  1     6                 25                  27.2
 7 Admiralty 2014  1     7                 26.5                30.6
 8 Admiralty 2014  1     8                 26.9                30.8
 9 Admiralty 2014  1     9                 25.4                27.5
10 Admiralty 2014  1     10                26.9                31.9
# ℹ 44,846 more rows
# ℹ 1 more variable: minimum_temperature <dbl>

historical_rainfall <- daily_historical %>% select(1:8)
historical_rainfall

# A tibble: 44,856 × 8
   station   year  month day   daily_rainfall_total highest_30_min_rainfall
   <chr>     <fct> <fct> <fct>                <dbl>                   <dbl>
 1 Admiralty 2014  1     1                      0                       0  
 2 Admiralty 2014  1     2                      0                       0  
 3 Admiralty 2014  1     3                      4.6                     4.4
 4 Admiralty 2014  1     4                      3.8                     3.8
 5 Admiralty 2014  1     5                      3.6                     1.2
 6 Admiralty 2014  1     6                     80                      21.8
 7 Admiralty 2014  1     7                      2                       2  
 8 Admiralty 2014  1     8                      0                       0  
 9 Admiralty 2014  1     9                      2.6                     1.4
10 Admiralty 2014  1     10                     0                       0  
# ℹ 44,846 more rows
# ℹ 2 more variables: highest_60_min_rainfall <dbl>,
#   highest_120_min_rainfall <dbl>
…
