ISSS608 - Hands-on Exercise 6
…
6.3.5 Building the calendar heatmaps

With theme_tufte()
Without theme_tufte()

grouped <- attacks %>%
  count(wkday,hour) %>%
  ungroup() %>%
  na.omit()

grouped

# A tibble: 168 × 3
   wkday    hour      n
   <fct>    <fct> <int>
 1 Saturday 0      1081
 2 Saturday 1      1053
 3 Saturday 2      1088
 4 Saturday 3      1130
 5 Saturday 4      1183
 6 Saturday 5      1226
 7 Saturday 6      1163
 8 Saturday 7      1128
 9 Saturday 8      1083
10 Saturday 9      1077
# ℹ 158 more rows
…
count the number of attacks by country,

calculate the percent of attacks by country, and

save the results in a tibble data frame.

attacks_by_country <- count(
  attacks,source_country) %>%
  mutate(percent = percent(n/sum(n))) %>%
  arrange(desc(n))

attacks_by_country

# A tibble: 117 × 3
   source_country     n percent  
   <chr>          <int> <chr>    
 1 CN             85243 42.62171%
 2 US             48684 24.34212%
 3 KR             12648 6.32403% 
 4 NL              8572 4.28602% 
 5 VN              6340 3.17002% 
 6 TW              3469 1.73451% 
 7 GB              3266 1.63301% 
 8 FR              3252 1.62601% 
 9 UA              2219 1.10951% 
10 DE              2055 1.02751% 
# ℹ 107 more rows
…
top4

[1] "CN" "US" "KR" "NL"

top4_attacks

# A tibble: 672 × 4
   source_country wkday    hour      n
   <fct>          <fct>    <fct> <int>
 1 CN             Saturday 0       438
 2 CN             Saturday 1       401
 3 CN             Saturday 2       358
 4 CN             Saturday 3       487
 5 CN             Saturday 4       457
 6 CN             Saturday 5       429
 7 CN             Saturday 6       393
 8 CN             Saturday 7       330
 9 CN             Saturday 8       421
10 CN             Saturday 9       361
# ℹ 662 more rows
…
