ISSS608 - In-class Exercise 9
…
wday used to extract Weekday from the SentDate and label = TRUE to ensure they are labelled.

3.2 Wrangling Attributes

GAStech_edges_aggregated <- GAStech_edges %>%
  filter(MainSubject == "Work related") %>%
  group_by(source, target, Weekday) %>%
  summarise(Weight = n()) %>%
  filter(source != target) %>%
  filter(Weight > 1) %>%
  ungroup()

GAStech_edges_aggregated

# A tibble: 1,372 × 4
   source target Weekday   Weight
    <dbl>  <dbl> <ord>      <int>
 1      1      2 Sunday         5
 2      1      2 Monday         2
 3      1      2 Tuesday        3
 4      1      2 Wednesday      4
 5      1      2 Friday         6
 6      1      3 Sunday         5
 7      1      3 Monday         2
 8      1      3 Tuesday        3
 9      1      3 Wednesday      4
10      1      3 Friday         6
# ℹ 1,362 more rows
…
